Feature selection algorithms
…
# Load the data
data <- readRDS("FRED-MD.rds")

Let's shift the target to generate a forecast, and drop missing values:

data <- data %>% 
  arrange(date) %>% 
  # Shift the target by 1 month
  mutate(Target = lead(INDPRO)) %>% 
  drop_na %>% 
  select(-date)

data
#> # A tibble: 363 × 135
#>          RPI   W875RX1 DPCERA3M08…¹ CMRMTS…²  RETAILx   INDPRO  IPFPNSS  IPFINAL
#>        <dbl>     <dbl>        <dbl>    <dbl>    <dbl>    <dbl>    <dbl>    <dbl>
#>  1  0.00165   0.000812     0.00182   0.00402 -0.00300  8.28e-3  8.51e-3  0.00899
#>  2  0.00373   0.00275      0.000839  0.00664  0.00602  7.59e-3  7.43e-3  0.00760
#>  3  0.00533   0.00549      0.00515  -0.00874  0.00547  3.22e-3  5.50e-3  0.00580
#>  4  0.00417   0.00445      0.00270   0.0105   0.00280  5.39e-4 -2.44e-3 -0.00309
#>  5 -0.000796 -0.00135      0.00334   0.0133   0.00708  8.91e-3  9.98e-3  0.0113 
#>  6  0.00386   0.00381      0.00247  -0.0160   0.00324 -5.57e-3 -1.14e-3 -0.00119
#>  7 -0.00383  -0.00495      0.00649   0.0138   0.00949  3.14e-3 -5.70e-4 -0.00190
#>  8 -0.00492  -0.00580      0.00337   0.00404  0.00721  6.79e-3  7.75e-3  0.0101 
#>  9  0.00218   0.00446      0.00171   0.00170  0.00221  4.03e-3  2.85e-3  0.00346
#> 10  0.0358    0.0401       0.00656   0.0154   0.0122   1.58e-3  3.36e-3  0.00278
#> # … with 353 more rows, 127 more variables: IPCONGD <dbl>, IPDCONGD <dbl>,
#> #   IPNCONGD <dbl>, IPBUSEQ <dbl>, IPMAT <dbl>, IPDMAT <dbl>, IPNMAT <dbl>,
#> #   IPMANSICS <dbl>, IPB51222S <dbl>, IPFUELS <dbl>, CUMFNS <dbl>, HWI <dbl>,
#> #   HWIURATIO <dbl>, CLF16OV <dbl>, CE16OV <dbl>, UNRATE <dbl>, UEMPMEAN <dbl>,
#> #   UEMPLT5 <dbl>, UEMP5TO14 <dbl>, UEMP15OV <dbl>, UEMP15T26 <dbl>,
#> #   UEMP27OV <dbl>, CLAIMSx <dbl>, PAYEMS <dbl>, USGOOD <dbl>,
#> #   CES1021000001 <dbl>, USCONS <dbl>, MANEMP <dbl>, DMANEMP <dbl>, …
…
