…
Multinomial classification is possible in tidyfit using the methods powered by glmnet, e1071 and randomForest (LASSO, Ridge, ElasticNet,  AdaLASSO, SVM and Random Forest). Currently, none of the other methods support multinomial classification.[Feature selection methods such as relief or chisq can be used with multinomial response variables. I may also add support for multinomial classification with mboost in future.] When the response variable contains more than 2 classes, classify automatically uses a multinomial response for the above-mentioned methods.

Here's an example using the built-in iris dataset:

data("iris")

# For reproducibility
set.seed(42)
ix_tst <- sample(1:nrow(iris), round(nrow(iris)*0.2))

data_trn <- iris[-ix_tst,]
data_tst <- iris[ix_tst,]

as_tibble(iris)
#> # A tibble: 150 × 5
#>    Sepal.Length Sepal.Width Petal.Length Petal.Width Species
#>           <dbl>       <dbl>        <dbl>       <dbl> <fct>  
#>  1          5.1         3.5          1.4         0.2 setosa 
#>  2          4.9         3            1.4         0.2 setosa 
#>  3          4.7         3.2          1.3         0.2 setosa 
#>  4          4.6         3.1          1.5         0.2 setosa 
#>  5          5           3.6          1.4         0.2 setosa 
#>  6          5.4         3.9          1.7         0.4 setosa 
#>  7          4.6         3.4          1.4         0.3 setosa 
#>  8          5           3.4          1.5         0.2 setosa 
#>  9          4.4         2.9          1.4         0.2 setosa 
#> 10          4.9         3.1          1.5         0.1 setosa 
#> # … with 140 more rows
…
