…
Value HML (high minus low)

Profitability RMW (robust minus weak)

Investment CMA (conservative minus aggressive)

Returns are provided for 10 industries, and excess returns are calculated by subtracting the risk free rate from the monthly industry returns:

data <- Factor_Industry_Returns
data <- data %>% 
  mutate(Date = ym(Date)) %>%         # Parse dates
  mutate(Return = Return - RF) %>%    # Excess return
  select(-RF)
data
#> # A tibble: 7,080 × 8
#>    Date       Industry Return `Mkt-RF`   SMB   HML   RMW   CMA
#>    <date>     <chr>     <dbl>    <dbl> <dbl> <dbl> <dbl> <dbl>
#>  1 1963-07-01 NoDur     -0.76    -0.39 -0.44 -0.89  0.68 -1.23
#>  2 1963-08-01 NoDur      4.64     5.07 -0.75  1.68  0.36 -0.34
#>  3 1963-09-01 NoDur     -1.96    -1.57 -0.55  0.08 -0.71  0.29
#>  4 1963-10-01 NoDur      2.36     2.53 -1.37 -0.14  2.8  -2.02
#>  5 1963-11-01 NoDur     -1.4     -0.85 -0.89  1.81 -0.51  2.31
#>  6 1963-12-01 NoDur      2.52     1.83 -2.07 -0.08  0.03 -0.04
#>  7 1964-01-01 NoDur      0.49     2.24  0.11  1.47  0.17  1.51
#>  8 1964-02-01 NoDur      1.61     1.54  0.3   2.74 -0.05  0.9 
#>  9 1964-03-01 NoDur      2.77     1.41  1.36  3.36 -2.21  3.19
#> 10 1964-04-01 NoDur     -0.77     0.1  -1.59 -0.58 -1.27 -1.04
#> # … with 7,070 more rows
…
mod_frame_rolling <- data %>% 
  regress(Return ~ CMA + HML + `Mkt-RF` + RMW + SMB,
          m("lm", vcov. = "HAC"),
          .cv = "sliding_index", .cv_args = list(lookback = years(5), step = 6, index = "Date"),
          .force_cv = TRUE, .return_slices = TRUE)

The .cv_args are arguments passed directly to rsample::sliding_index. We are using a 5 year window (lookback = years(5)), and skipping 6 months between each window to reduce the number of models fitted (step = 6).

The model frame now contains models for each slice for each industry. The slice_id provides the valid date for the respective slices. Betas can be extracted using the built-in coef function:

df_beta <- coef(mod_frame_rolling)

df_beta
#> # A tibble: 6,480 × 6
#> # Groups:   Industry, model [10]
#>    Industry model term        estimate slice_id   model_info      
#>    <chr>    <chr> <chr>          <dbl> <chr>      <list>          
#>  1 Durbl    lm    (Intercept)  -0.434  1968-07-01 <tibble [1 × 3]>
#>  2 Durbl    lm    CMA           0.0258 1968-07-01 <tibble [1 × 3]>
#>  3 Durbl    lm    HML           0.661  1968-07-01 <tibble [1 × 3]>
#>  4 Durbl    lm    Mkt-RF        1.28   1968-07-01 <tibble [1 × 3]>
#>  5 Durbl    lm    RMW           0.898  1968-07-01 <tibble [1 × 3]>
#>  6 Durbl    lm    SMB          -0.150  1968-07-01 <tibble [1 × 3]>
#>  7 Durbl    lm    (Intercept)  -0.423  1969-01-01 <tibble [1 × 3]>
#>  8 Durbl    lm    CMA           0.235  1969-01-01 <tibble [1 × 3]>
#>  9 Durbl    lm    HML           0.569  1969-01-01 <tibble [1 × 3]>
#> 10 Durbl    lm    Mkt-RF        1.25   1969-01-01 <tibble [1 × 3]>
#> # … with 6,470 more rows

In order to plot the betas, we will add confidence bands. HAC standard errors are nested in model_info in the coefficients frame:

df_beta <- df_beta %>% 
  unnest(model_info) %>% 
  mutate(upper = estimate + 2 * std.error, lower = estimate - 2 * std.error)

df_beta
#> # A tibble: 6,480 × 10
#> # Groups:   Industry, model [10]
#>    Industry model term    estim…¹ slice…² std.e…³ stati…⁴  p.value upper   lower
#>    <chr>    <chr> <chr>     <dbl> <chr>     <dbl>   <dbl>    <dbl> <dbl>   <dbl>
#>  1 Durbl    lm    (Inter… -0.434  1968-0…   0.383 -1.13   2.62e- 1 0.332 -1.20  
#>  2 Durbl    lm    CMA      0.0258 1968-0…   0.262  0.0985 9.22e- 1 0.550 -0.498 
#>  3 Durbl    lm    HML      0.661  1968-0…   0.239  2.77   7.68e- 3 1.14   0.183 
#>  4 Durbl    lm    Mkt-RF   1.28   1968-0…   0.124 10.3    2.00e-14 1.52   1.03  
#>  5 Durbl    lm    RMW      0.898  1968-0…   0.378  2.37   2.11e- 2 1.65   0.141 
#>  6 Durbl    lm    SMB     -0.150  1968-0…   0.133 -1.13   2.65e- 1 0.116 -0.416 
#>  7 Durbl    lm    (Inter… -0.423  1969-0…   0.396 -1.07   2.90e- 1 0.369 -1.22  
#>  8 Durbl    lm    CMA      0.235  1969-0…   0.264  0.889  3.78e- 1 0.764 -0.293 
#>  9 Durbl    lm    HML      0.569  1969-0…   0.243  2.34   2.29e- 2 1.06   0.0829
#> 10 Durbl    lm    Mkt-RF   1.25   1969-0…   0.150  8.33   2.52e-11 1.55   0.950 
#> # … with 6,470 more rows, and abbreviated variable names ¹​estimate, ²​slice_id,
#> #   ³​std.error, ⁴​statistic
…
